<?xml version="1.0" encoding="utf-8" standalone="no"?>
<!DOCTYPE svg PUBLIC "-//W3C//DTD SVG 1.1//EN" "http://www.w3.org/Graphics/SVG/1.1/DTD/svg11.dtd">
<svg xmlns="http://www.w3.org/2000/svg" xmlns:xl="http://www.w3.org/1999/xlink" version="1.1" viewBox="34 146 536 251" width="536pt" height="251pt" xmlns:dc="http://purl.org/dc/elements/1.1/"><metadata> Produced by OmniGraffle 6.0.2 <dc:date>2013-12-19 19:50Z</dc:date></metadata><defs><font-face font-family="Optima" font-size="18" panose-1="2 0 8 3 8 0 0 2 0 4" units-per-em="1000" underline-position="-100" underline-thickness="50" slope="0" x-height="494" cap-height="700" ascent="921.00525" descent="-268.00537" font-weight="bold"><font-face-src><font-face-name name="Optima-Bold"/></font-face-src></font-face><linearGradient x1="0" x2="1" id="Gradient" gradientUnits="userSpaceOnUse"><stop offset="0" stop-color="#ff817f"/><stop offset="1" stop-color="#c94e4d"/></linearGradient><linearGradient id="Obj_Gradient" xl:href="#Gradient" gradientTransform="translate(59.52756 215.43307) scale(25.511811)"/><filter id="Shadow" filterUnits="userSpaceOnUse"><feGaussianBlur in="SourceAlpha" result="blur" stdDeviation=".43257925"/><feOffset in="blur" result="offset" dx="0" dy="1"/><feFlood flood-color="black" flood-opacity=".15" result="flood"/><feComposite in="flood" in2="offset" operator="in" result="color"/><feMerge><feMergeNode in="color"/><feMergeNode in="SourceGraphic"/></feMerge></filter><linearGradient id="Obj_Gradient_2" xl:href="#Gradient" gradientTransform="translate(269.94038 251.58832) rotate(90) scale(31.181102)"/><linearGradient id="Obj_Gradient_3" xl:href="#Gradient" gradientTransform="translate(416.04387 251.58832) rotate(90) scale(31.181102)"/><linearGradient id="Obj_Gradient_4" xl:href="#Gradient" gradientTransform="translate(124.72441 215.43307) rotate(180) scale(25.511811)"/><linearGradient id="Obj_Gradient_5" xl:href="#Gradient" gradientTransform="translate(160.92576 251.58832) rotate(90) scale(31.181102)"/><linearGradient id="Obj_Gradient_6" xl:href="#Gradient" gradientTransform="translate(128.076016 326.68215) rotate(90) scale(24.835687)"/><linearGradient id="Obj_Gradient_7" xl:href="#Gradient" gradientTransform="translate(275.47759 326.68215) rotate(90) scale(24.835687)"/><linearGradient id="Obj_Gradient_8" xl:href="#Gradient" gradientTransform="translate(421.84524 326.68215) rotate(90) scale(24.835687)"/><linearGradient id="Obj_Gradient_9" xl:href="#Gradient" gradientTransform="translate(422.34744 385.5118) rotate(-90) scale(24.835687)"/><linearGradient id="Obj_Gradient_a" xl:href="#Gradient" gradientTransform="translate(274.97539 385.5118) rotate(-90) scale(24.835687)"/><linearGradient id="Obj_Gradient_b" xl:href="#Gradient" gradientTransform="translate(127.57381 385.5118) rotate(-90) scale(24.835687)"/></defs><g stroke="none" stroke-opacity="1" stroke-dasharray="none" fill="none" fill-opacity="1"><title>Canvas 1</title><rect fill="white" width="806" height="536.00002"/><g><title>Layer 1</title><rect x="45.35433" y="155.90551" width="85.03937" height="31.181102" id="path"/><clipPath id="clip_path"><use xl:href="#path"/></clipPath><g clip-path="url(#clip_path)"><image xl:href="image1.tiff" width="522.25743" height="163.20545" transform="matrix(.16283037 0 0 .1910543 45.35433 155.90551)"/></g><path d="M 243.77953 250.89392 C 243.77953 244.98635 243.05953 244.25546 237.80012 238.409 L 237.74457 238.34852 C 232.45738 232.44094 232.40239 232.44094 226.97631 232.44094 C 219.75137 232.44094 187.08661 232.44094 187.08661 232.44094 L 187.08661 294.80315 L 243.77953 294.80315 L 243.77953 250.89392 Z M 243.77953 250.58959 C 243.77953 244.98635 243.72397 244.98635 232.40239 244.98635 L 232.40239 244.98635 C 232.40239 232.50206 232.40239 232.44094 227.30853 232.44094" stroke="black" stroke-linecap="round" stroke-linejoin="round" stroke-width="1"/><text transform="translate(192.08661 252.62205)" fill="black"><tspan font-family="Optima" font-size="18" font-weight="bold" x=".83745653" y="17" textLength="45.018">dump</tspan></text><path d="M 78.66142 232.4557 L 65.90551 232.4557 L 65.90551 218.41044 L 59.52756 218.41044 L 72.283464 198.41044 L 85.03937 218.41044 L 78.66142 218.41044 Z" fill="url(#Obj_Gradient)"/><path d="M 78.66142 232.4557 L 65.90551 232.4557 L 65.90551 218.41044 L 59.52756 218.41044 L 72.283464 198.41044 L 85.03937 218.41044 L 78.66142 218.41044 Z" stroke="#b00600" stroke-linecap="round" stroke-linejoin="round" stroke-width="1"/><g filter="url(#Shadow)"><rect x="297.6378" y="246.61417" width="90.70866" height="36.850393" fill="#86000b"/><text transform="translate(314.70866 254.03937)" fill="white"><tspan font-family="Optima" font-size="18" font-weight="bold" fill="white" x=".27546436" y="17" textLength="56.016">Lucene</tspan></text></g><g filter="url(#Shadow)"><rect x="45.35433" y="246.61417" width="90.70866" height="36.850393" fill="#86000b"/><text transform="translate(62.425197 254.03937)" fill="white"><tspan font-family="Optima" font-size="18" font-weight="bold" fill="white" x="3.7764644" y="17" textLength="49.014">Nutch</tspan></text></g><path d="M 252.91775 274.97415 L 252.91775 259.38359 L 266.96301 259.38359 L 266.96301 251.58832 L 286.96301 267.17887 L 266.96301 282.76942 L 266.96301 274.97415 Z" fill="url(#Obj_Gradient_2)"/><path d="M 252.91775 274.97415 L 252.91775 259.38359 L 266.96301 259.38359 L 266.96301 251.58832 L 286.96301 267.17887 L 266.96301 282.76942 L 266.96301 274.97415 Z" stroke="#b00600" stroke-linecap="round" stroke-linejoin="round" stroke-width="1"/><path d="M 558.4252 287.71398 C 558.4252 274.55621 557.0392 272.92833 546.91485 259.90668 L 546.8079 259.77194 C 536.63007 246.61417 536.5242 246.61417 526.079 246.61417 C 512.171 246.61417 449.29134 246.61417 449.29134 246.61417 L 449.29134 385.5118 L 558.4252 385.5118 L 558.4252 287.71398 Z M 558.4252 287.03616 C 558.4252 274.55621 558.31824 274.55621 536.5242 274.55621 L 536.5242 274.55621 C 536.5242 246.75029 536.5242 246.61417 526.71853 246.61417" stroke="black" stroke-linecap="round" stroke-linejoin="round" stroke-width="1"/><text transform="translate(454.29134 305.06299)" fill="black"><tspan font-family="Optima" font-size="18" font-weight="bold" x="28.056929" y="17" textLength="43.02">index</tspan></text><path d="M 399.02124 274.97415 L 399.02124 259.38359 L 413.0665 259.38359 L 413.0665 251.58832 L 433.0665 267.17887 L 413.0665 282.76942 L 413.0665 274.97415 Z" fill="url(#Obj_Gradient_3)"/><path d="M 399.02124 274.97415 L 399.02124 259.38359 L 413.0665 259.38359 L 413.0665 251.58832 L 433.0665 267.17887 L 413.0665 282.76942 L 413.0665 274.97415 Z" stroke="#b00600" stroke-linecap="round" stroke-linejoin="round" stroke-width="1"/><path d="M 105.59055 198.41044 L 118.34646 198.41044 L 118.34646 212.4557 L 124.72441 212.4557 L 111.9685 232.4557 L 99.2126 212.4557 L 105.59055 212.4557 Z" fill="url(#Obj_Gradient_4)"/><path d="M 105.59055 198.41044 L 118.34646 198.41044 L 118.34646 212.4557 L 124.72441 212.4557 L 111.9685 232.4557 L 99.2126 212.4557 L 105.59055 212.4557 Z" stroke="#b00600" stroke-linecap="round" stroke-linejoin="round" stroke-width="1"/><path d="M 143.90313 274.97415 L 143.90313 259.38359 L 157.94839 259.38359 L 157.94839 251.58832 L 177.94839 267.17887 L 157.94839 282.76942 L 157.94839 274.97415 Z" fill="url(#Obj_Gradient_5)"/><path d="M 143.90313 274.97415 L 143.90313 259.38359 L 157.94839 259.38359 L 157.94839 251.58832 L 177.94839 267.17887 L 157.94839 282.76942 L 157.94839 274.97415 Z" stroke="#b00600" stroke-linecap="round" stroke-linejoin="round" stroke-width="1"/><rect x="45.35433" y="325.98425" width="59.52756" height="59.52756" id="path_2"/><clipPath id="clip_path_2"><use xl:href="#path_2"/></clipPath><g clip-path="url(#clip_path_2)"><image xl:href="image4.tiff" width="512" height="512" transform="translate(45.35433 325.98425) scale(.11626476)"/></g><path d="M 111.053385 345.30891 L 111.053385 332.89107 L 125.098645 332.89107 L 125.098645 326.68215 L 145.09865 339.09999 L 125.098645 351.51783 L 125.098645 345.30891 Z" fill="url(#Obj_Gradient_6)"/><path d="M 111.053385 345.30891 L 111.053385 332.89107 L 125.098645 332.89107 L 125.098645 326.68215 L 145.09865 339.09999 L 125.098645 351.51783 L 125.098645 345.30891 Z" stroke="#b00600" stroke-linecap="round" stroke-linejoin="round" stroke-width="1"/><g filter="url(#Shadow)"><rect x="161.5748" y="337.32283" width="90.70866" height="36.850393" fill="#86000b"/><text transform="translate(178.64567 344.74803)" fill="white"><tspan font-family="Optima" font-size="18" font-weight="bold" fill="white" x=".26646436" y="17" textLength="56.034">node.js</tspan></text></g><path d="M 258.45496 345.30891 L 258.45496 332.89107 L 272.50022 332.89107 L 272.50022 326.68215 L 292.50022 339.09999 L 272.50022 351.51783 L 272.50022 345.30891 Z" fill="url(#Obj_Gradient_7)"/><path d="M 258.45496 345.30891 L 258.45496 332.89107 L 272.50022 332.89107 L 272.50022 326.68215 L 292.50022 339.09999 L 272.50022 351.51783 L 272.50022 345.30891 Z" stroke="#b00600" stroke-linecap="round" stroke-linejoin="round" stroke-width="1"/><g filter="url(#Shadow)"><rect x="304.7244" y="340.15748" width="90.70866" height="36.850393" fill="#86000b"/><text transform="translate(321.79527 347.58268)" fill="white"><tspan font-family="Optima" font-size="18" font-weight="bold" fill="white" x=".27546436" y="17" textLength="56.016">Lucene</tspan></text></g><path d="M 404.8226 345.30891 L 404.8226 332.89107 L 418.86787 332.89107 L 418.86787 326.68215 L 438.86787 339.09999 L 418.86787 351.51783 L 418.86787 345.30891 Z" fill="url(#Obj_Gradient_8)"/><path d="M 404.8226 345.30891 L 404.8226 332.89107 L 418.86787 332.89107 L 418.86787 326.68215 L 438.86787 339.09999 L 418.86787 351.51783 L 418.86787 345.30891 Z" stroke="#b00600" stroke-linecap="round" stroke-linejoin="round" stroke-width="1"/><path d="M 439.37008 366.88504 L 439.37008 379.3029 L 425.32482 379.3029 L 425.32482 385.5118 L 405.32481 373.09397 L 425.32482 360.67612 L 425.32482 366.88504 Z" fill="url(#Obj_Gradient_9)"/><path d="M 439.37008 366.88504 L 439.37008 379.3029 L 425.32482 379.3029 L 425.32482 385.5118 L 405.32481 373.09397 L 425.32482 360.67612 L 425.32482 366.88504 Z" stroke="#b00600" stroke-linecap="round" stroke-linejoin="round" stroke-width="1"/><path d="M 291.99802 366.88504 L 291.99802 379.3029 L 277.95276 379.3029 L 277.95276 385.5118 L 257.95275 373.09397 L 277.95276 360.67612 L 277.95276 366.88504 Z" fill="url(#Obj_Gradient_a)"/><path d="M 291.99802 366.88504 L 291.99802 379.3029 L 277.95276 379.3029 L 277.95276 385.5118 L 257.95275 373.09397 L 277.95276 360.67612 L 277.95276 366.88504 Z" stroke="#b00600" stroke-linecap="round" stroke-linejoin="round" stroke-width="1"/><path d="M 144.59644 366.88504 L 144.59644 379.3029 L 130.55118 379.3029 L 130.55118 385.5118 L 110.55118 373.09397 L 130.55118 360.67612 L 130.55118 366.88504 Z" fill="url(#Obj_Gradient_b)"/><path d="M 144.59644 366.88504 L 144.59644 379.3029 L 130.55118 379.3029 L 130.55118 385.5118 L 110.55118 373.09397 L 130.55118 360.67612 L 130.55118 366.88504 Z" stroke="#b00600" stroke-linecap="round" stroke-linejoin="round" stroke-width="1"/></g></g></svg>
