\relax 
\providecommand\hyper@newdestlabel[2]{}
\providecommand\HyperFirstAtBeginDocument{\AtBeginDocument}
\HyperFirstAtBeginDocument{\ifx\hyper@anchor\@undefined
\global\let\oldcontentsline\contentsline
\gdef\contentsline#1#2#3#4{\oldcontentsline{#1}{#2}{#3}}
\global\let\oldnewlabel\newlabel
\gdef\newlabel#1#2{\newlabelxx{#1}#2}
\gdef\newlabelxx#1#2#3#4#5#6{\oldnewlabel{#1}{{#2}{#3}}}
\AtEndDocument{\ifx\hyper@anchor\@undefined
\let\contentsline\oldcontentsline
\let\newlabel\oldnewlabel
\fi}
\fi}
\global\let\hyper@last\relax 
\gdef\HyperFirstAtBeginDocument#1{#1}
\providecommand*\HyPL@Entry[1]{}
\HyPL@Entry{0<</S/D>>}
\select@language{english}
\@writefile{toc}{\select@language{english}}
\@writefile{lof}{\select@language{english}}
\@writefile{lot}{\select@language{english}}
\@writefile{toc}{\contentsline {section}{\numberline {1}Introduction}{2}{section.1}}
\@writefile{toc}{\contentsline {section}{\numberline {2}Implementation}{2}{section.2}}
\@writefile{toc}{\contentsline {subsection}{\numberline {2.1}Components and Technologies}{2}{subsection.2.1}}
\@writefile{lof}{\contentsline {figure}{\numberline {1}{\ignorespaces \textit  {BravoCharlie}'s main components.}}{2}{figure.1}}
\@writefile{toc}{\contentsline {subsubsection}{\numberline {2.1.1}Requirements}{3}{subsubsection.2.1.1}}
\@writefile{toc}{\contentsline {paragraph}{Note:}{3}{section*.2}}
\@writefile{toc}{\contentsline {subsubsection}{\numberline {2.1.2}Crawling}{3}{subsubsection.2.1.2}}
\@writefile{toc}{\contentsline {subsubsection}{\numberline {2.1.3}Indexing}{4}{subsubsection.2.1.3}}
\@writefile{toc}{\contentsline {subsubsection}{\numberline {2.1.4}Retrieving}{4}{subsubsection.2.1.4}}
\@writefile{toc}{\contentsline {subsubsection}{\numberline {2.1.5}The Front-end}{5}{subsubsection.2.1.5}}
\@writefile{toc}{\contentsline {subsection}{\numberline {2.2}The User Interface}{6}{subsection.2.2}}
\@writefile{toc}{\contentsline {subsubsection}{\numberline {2.2.1}The Search Bar}{6}{subsubsection.2.2.1}}
\@writefile{lof}{\contentsline {figure}{\numberline {2}{\ignorespaces The Search Bar}}{6}{figure.2}}
\@writefile{lof}{\contentsline {figure}{\numberline {3}{\ignorespaces The Datepicker}}{6}{figure.3}}
\newlabel{datepicker}{{2.2.1}{6}{The Search Bar}{figure.3}{}}
\@writefile{toc}{\contentsline {subsubsection}{\numberline {2.2.2}The Results}{6}{subsubsection.2.2.2}}
\@writefile{lof}{\contentsline {figure}{\numberline {4}{\ignorespaces The Retrieved Results}}{7}{figure.4}}
\newlabel{newslist}{{4}{7}{The Retrieved Results}{figure.4}{}}
\@writefile{toc}{\contentsline {subsubsection}{\numberline {2.2.3}Focusing on Usability}{7}{subsubsection.2.2.3}}
\@writefile{toc}{\contentsline {section}{\numberline {3}Evaluation}{8}{section.3}}
\@writefile{toc}{\contentsline {subsection}{\numberline {3.1}Procedure}{8}{subsection.3.1}}
\@writefile{toc}{\contentsline {subsection}{\numberline {3.2}Outcome}{8}{subsection.3.2}}
\@writefile{toc}{\contentsline {subsection}{\numberline {3.3}Threats to Validity}{9}{subsection.3.3}}
\@writefile{toc}{\contentsline {subsection}{\numberline {3.4}Improvements}{9}{subsection.3.4}}
\@writefile{toc}{\contentsline {section}{\numberline {4}Closing Remarks}{10}{section.4}}
